* keep from adding replies already on page to page again
  * cache pages in *global*?

; <= 1608972162 publish
; <= 1608963724 open
; md-li-x
# md-li
; cr. 1608972889 , ar. 1639982434
>> 1608972889 deduplicate
